{
	"description": "A list of questions",
	"allQuestions": [
		{
		"value": "100",
		"questions":[
			"How many siblings do you have?",
			"What is your email address?",
			"Who is your best friend?",
			"Do you have friends?",
			"What is your age?",
			"What is your gender?",
			"Do you have a family?",
			"Do you have a pet?",
			"How does a typical sunday look like for you?",
			"What is your name?",
			"What are you wearing?",
			"Are you a dog or a cat person?",
			"What is the color of your eyes?",
			"What is the color of your hair?",
			"How tall are you?",
			"What is your favorite dish?",
			"Which country do you live in?",
			"Which country are you from?",
			"How many languages do you speak? Which?",
			"What is your favorite color?",
			"What are your hobbies?",
			"Do you have a job?",
			"What do you do in your spare time?",
			"Do you like to travel?",
			"What is your favorite drink?",
			"Do you drink alcohol?",
			"What’s your favorite vacation spot?",
			"Do you like flowers? What are your favorite kind?",
			"Do you enjoy being creative?",
			"Do you like partying?",
			"Do you know your father?",
			"Do you believe there is more between heaven and earth?",
			"Are you interested in politics?"
	]
},
{
	"value": "200",
	"questions":[
			"Are you in a relationship?",
			"Are you married?",
			"Where would you like to live for a year?",
			"Name five places you want to visit and explore",
			"Where do you see yourself in 10 years?",
			"Who are you closest to in you family?",
			"Do you want to be in a relationship right now?",
			"When was your last relationship?",
			"What do you do to relax?",
			"What has been the best year of your life so far?",
			"What do you spend most of your time doing?",
			"What do you spend way too much money on?",
			"What is your address?",
			"How much do you weigh?",
			"Have you ever been in love?",
			"What’s your idea of a perfect date?",
			"Do you believe in love at first sight?",
			"Describe yourself with 3 words",
			"What small things make you happy?",
			"Where did you grow up? What was it like?",
			"How did you meet your best friend?",
			"If you had a free plane ticket where would you go?",
			"What is your best memory?",
			"Do you want kids?",
			"Who pays on the first date?",
			"Do you work out?",
			"What do you do to stay healthy?",
			"What are your healthy and unhealthy habits?",
			"What is the best present you have ever received?",
			"Are you religious? What religion?",
			"What do you spend most of your money on buying?"

]
},
{
"value": "300",
"questions":[
			"Are you good at making friends?",
			"Are you divorced?",
			"Who from your family do you identify with?",
			"How is your relationship with your mother?",
			"How is your relationship with your father?",
			"What are your biggest dream?",
			"What is your biggest fear?",
			"Are you introvert og ekstrovert?",
			"What do you find attractive?",
			"What is your biggest turn off?",
			"Why did your last relationship end?",
			"What is your most embarrassing moment?",
			"What do you like most about your looks?",
			"What do you like the least about your looks?",
			"How often do you go to the doctor?",
			"Are you happy?",
			"Sum up your life’s philosophy in one sentence",
			"Are you more likely to avoid conflict or engage it head-on?",
			"Do you prefer that people shoot straight with you or temper their words?",
			"How difficult is it for you to forgive someone who refuses to apologize?",
			"Did you have a good childhood?",
			"Why do you think it is so hard to date these days?",
			"What is the most dangerous or challenging think you have ever done?",
			"Who is your celebrity crush?",
			"Were/are you a good student in school?",
			"Which of your possessions could you not live without?",
			"What are your deal breakers?",
			"Which music number can make you cry?",
			"What have you always wanted to try?",
			"What are you most thankful for?",
			"What sort of criminal actions are you most likely to perform?",
			"Which of your mother and father do you like the most?",
			"What would you like to accomplish within the next 5 years?",
			"What would you like to accomplish within the next 10 years?",
			"Is it okay to lie in a relationship?",
			"What instantly makes you angry?",
			"What was the best date you have ever been on?",
			"What do you want to achieve in life?",
			"When you’re upset do you want space or attention?",
			"How do you handle critic?",
			"What is the nicest thing anyone has ever done for you?",
			"What can someone do which instantly annoy you?",
			"When making an entrance to a party, do you make your presence known?",
			"Is it easy for you to show yourself love or speak kindly to yourself?",
			"Do you usually follow your heart or your head?",
			"What do you prefer stability or spontaneity?"

		]
		},
		{
"value": "400",
"questions":[
			"Name the person that you have the most complicated relationship with",
			"Name the person from your family that you love the most",
			"Name the person who has hurt you the most",
			"Name a person you can't live without",
			"What is a good friendship to you?",
			"What are you dreaming about?",
			"When was your first sexual experience?",
			"Do you like yourself?",
			"What are your best qualities? (name 3)",
			"Do you wear anything to bed?",
			"What are your worst qualities? (name 3)",
			"What are your guilty pleasures?",
			"If you could change anything in your life, what would it be?",
			"Which body part of yours do you like the most?",
			"What is the most important thing in your life?",
			"What is your biggest regret?",
			"What is the worst thing you have ever done?",
			"What is the perfect partner?",
			"Have you ever cheated on someone or helped someone else cheat?",
			"Are you quick to judge?",
			"What are the three most important things in your life?",
			"What do you think make a relationship successful?",
			"What is the worst thing that somebody has walked in on you doing?",
			"How do you handle people you don’t like?",
			"In what area of your life are you immature?",
			"Do you accept and love yourself for who you are?",
			"What do you want people to feel when they’re around you?",
			"What is the best advice you’ve ever been given?",
			"Would you rather die young or live until you’re old?",
			"Do you assume people are bad or good until other is proven?"
]
},
{
	"value": "500",
	"questions":[
			"Do you feel lonely?",
			"What do you fantasize about?",
			"What is your bank account number?",
			"What is your CPR?",
			"When you do something positive or helpful to others, do you prefer private recognition or public praise?",
			"Upon dying, would you choose to relive your life or live a different life?",
			"How have your friends influenced your personality?",
			"Do you feel some people will be better off without you in their life?",
			"Do you prefer to have the lights on or off when having sex?",
			"What is your favorite sex position?",
			"Do you feel like you would have been a better person if you never met someone in your life?",
			"Have you ever been bullied yourself or bullied someone else?",
			"Do you resent the way you were raised?",
			"Have you ever had a one night stand?",
			"Do you hold any grudges against anyone?",
			"What would you change in your life if you had the possibility?",
			"Do you have a deep, dark secret? What is it?",
			"When was the last time you cried? Why?",
			"How was your first sexual experience?",
			"What is the one thing you feel like you can never outgrow?",
			"If you die today, what will you be happy to have experienced?",
			"How often do you fake it?",
			"Do you ever feel pressured to fit in?",
			"What incident changed your life instantly?",
			"What is things in your life that you are least proud of?",
			"How does it feel to be a failure?",
			"What is the weirdest sexual thing you have done?",
			"How difficult is it for you to be honest, even when your words may be hurtful or unpopular?",
			"How do you want to be remembered? Do you think you would be remembered this way?",
			"Would you rather end hunger or hatred? Why?",
			"What is the worst you’ve ever been exposed to?"
	]
}
]
}
